{
  "project_info": {
    "project_number": "525183270455",
    "firebase_url": "https://mydailyreport-d9cbf.firebaseio.com",
    "project_id": "mydailyreport-d9cbf",
    "storage_bucket": "mydailyreport-d9cbf.appspot.com"
  },
  "client": [
    {
      "client_info": {
        "mobilesdk_app_id": "1:525183270455:android:0a9dd4261e4efef7",
        "android_client_info": {
          "package_name": "com.danny.mydailyreport"
        }
      },
      "oauth_client": [
        {
          "client_id": "525183270455-6989q453m6a32vgv015hol3o49i459uo.apps.googleusercontent.com",
          "client_type": 1,
          "android_info": {
            "package_name": "com.danny.mydailyreport",
            "certificate_hash": "db5d36f3c25f190b47fe54147533570731eabf48"
          }
        },
        {
          "client_id": "525183270455-843hgopulj06748pqbb7hp6dri737vlj.apps.googleusercontent.com",
          "client_type": 3
        }
      ],
      "api_key": [
        {
          "current_key": "AIzaSyDAUk2w5OD76PJ4uD9r6VZqk9bSIh2vkqE"
        },
        {
          "current_key": "AIzaSyAG1M2_AD90-UDoDRWiphmnvtG4GWjVbF8"
        }
      ],
      "services": {
        "analytics_service": {
          "status": 1
        },
        "appinvite_service": {
          "status": 2,
          "other_platform_oauth_client": [
            {
              "client_id": "525183270455-843hgopulj06748pqbb7hp6dri737vlj.apps.googleusercontent.com",
              "client_type": 3
            }
          ]
        },
        "ads_service": {
          "status": 2
        }
      }
    },
    {
      "client_info": {
        "mobilesdk_app_id": "1:525183270455:android:c44704082ab5a3cc",
        "android_client_info": {
          "package_name": "com.danny.mynotedreport"
        }
      },
      "oauth_client": [
        {
          "client_id": "525183270455-1gt44c3js5eh0k78pe2i042o22bbinf0.apps.googleusercontent.com",
          "client_type": 1,
          "android_info": {
            "package_name": "com.danny.mynotedreport",
            "certificate_hash": "db5d36f3c25f190b47fe54147533570731eabf48"
          }
        },
        {
          "client_id": "525183270455-843hgopulj06748pqbb7hp6dri737vlj.apps.googleusercontent.com",
          "client_type": 3
        }
      ],
      "api_key": [
        {
          "current_key": "AIzaSyDAUk2w5OD76PJ4uD9r6VZqk9bSIh2vkqE"
        },
        {
          "current_key": "AIzaSyAG1M2_AD90-UDoDRWiphmnvtG4GWjVbF8"
        }
      ],
      "services": {
        "analytics_service": {
          "status": 1
        },
        "appinvite_service": {
          "status": 2,
          "other_platform_oauth_client": [
            {
              "client_id": "525183270455-843hgopulj06748pqbb7hp6dri737vlj.apps.googleusercontent.com",
              "client_type": 3
            }
          ]
        },
        "ads_service": {
          "status": 2
        }
      }
    }
  ],
  "configuration_version": "1"
}